EESchema Schematic File Version 4
EELAYER 30 0
EELAYER END
$Descr A4 11693 8268
encoding utf-8
Sheet 1 1
Title ""
Date ""
Rev ""
Comp ""
Comment1 ""
Comment2 ""
Comment3 ""
Comment4 ""
$EndDescr
$Comp
L spaceconcordia:Teensy3.6 U2
U 1 1 5F795489
P 5500 3700
F 0 "U2" H 3073 3846 50  0000 R CNN
F 1 "Teensy3.6" H 3073 3755 50  0000 R CNN
F 2 "spaceconu:Teensy3.6v2" H 5500 3700 50  0001 C CNN
F 3 "" H 5500 3700 50  0001 C CNN
	1    5500 3700
	1    0    0    -1  
$EndComp
$Comp
L Regulator_Switching:LM2594M-ADJ U1
U 1 1 5F7E41AC
P 2200 1850
F 0 "U1" H 2200 2217 50  0000 C CNN
F 1 "LM2594M-ADJ" H 2200 2126 50  0000 C CNN
F 2 "Package_SO:SOIC-8_3.9x4.9mm_P1.27mm" H 2400 1600 50  0001 L CIN
F 3 "http://www.ti.com/lit/ds/symlink/lm2594.pdf" H 2200 1950 50  0001 C CNN
	1    2200 1850
	1    0    0    -1  
$EndComp
$Comp
L Device:C C1
U 1 1 5F7E4935
P 1300 2000
F 0 "C1" H 1415 2046 50  0000 L CNN
F 1 "C" H 1415 1955 50  0000 L CNN
F 2 "Capacitor_SMD:CP_Elec_3x5.3" H 1338 1850 50  0001 C CNN
F 3 "~" H 1300 2000 50  0001 C CNN
	1    1300 2000
	1    0    0    -1  
$EndComp
$Comp
L Device:C C2
U 1 1 5F7E4F3A
P 2550 2450
F 0 "C2" H 2665 2496 50  0000 L CNN
F 1 "C" H 2665 2405 50  0000 L CNN
F 2 "Capacitor_SMD:CP_Elec_3x5.3" H 2588 2300 50  0001 C CNN
F 3 "~" H 2550 2450 50  0001 C CNN
	1    2550 2450
	1    0    0    -1  
$EndComp
$Comp
L power:GND #PWR0101
U 1 1 5F7E7101
P 2300 2650
F 0 "#PWR0101" H 2300 2400 50  0001 C CNN
F 1 "GND" H 2305 2477 50  0000 C CNN
F 2 "" H 2300 2650 50  0001 C CNN
F 3 "" H 2300 2650 50  0001 C CNN
	1    2300 2650
	1    0    0    -1  
$EndComp
$Comp
L 2PINConnect:B2B-XH-ALFSN J1
U 1 1 5F7E85AE
P 1750 1400
F 0 "J1" H 1992 1013 60  0000 C CNN
F 1 "B2B-XH-ALFSN" H 1992 1119 60  0000 C CNN
F 2 "MattConn1:B2B-XH-ALFSN" H 2150 1340 60  0001 C CNN
F 3 "" H 1750 1400 60  0000 C CNN
	1    1750 1400
	-1   0    0    1   
$EndComp
Wire Wire Line
	1300 2450 2300 2450
Wire Wire Line
	1300 1750 1300 1850
Wire Wire Line
	1300 1900 1300 2450
Wire Wire Line
	2300 2450 2300 2600
Wire Wire Line
	2550 2150 2550 2300
Wire Wire Line
	2550 2600 2300 2600
Connection ~ 2300 2600
Wire Wire Line
	2300 2600 2300 2650
Wire Wire Line
	1800 1750 1750 1750
Wire Wire Line
	1750 1400 1750 1750
Connection ~ 1750 1750
Wire Wire Line
	1750 1750 1300 1750
Wire Wire Line
	1750 1300 2250 1300
Wire Wire Line
	2250 1300 2250 950 
Wire Wire Line
	2550 2150 2700 2150
Wire Wire Line
	2700 2150 2700 1850
Wire Wire Line
	2400 2150 2400 950 
Wire Wire Line
	2400 950  2250 950 
Wire Wire Line
	3200 1850 3200 3100
Wire Wire Line
	2600 1850 2700 1850
Connection ~ 2700 1850
Wire Wire Line
	2700 1850 3200 1850
$Comp
L spaceconcordia:25SH-C-03-TS U3
U 1 1 5F89D4AC
P 4850 4850
F 0 "U3" H 4850 4435 50  0000 C CNN
F 1 "25SH-C-03-TS" H 4850 4526 50  0000 C CNN
F 2 "spaceconu:25SH-B-03-TS" H 4850 4850 50  0001 C CNN
F 3 "" H 4850 4850 50  0001 C CNN
	1    4850 4850
	1    0    0    -1  
$EndComp
$Comp
L spaceconcordia:SWR201-NRTN-S03-SA-WH U4
U 1 1 5F89FDE6
P 6700 2250
F 0 "U4" H 6700 1785 50  0000 C CNN
F 1 "SWR201-NRTN-S03-SA-WH" H 6700 1876 50  0000 C CNN
F 2 "spaceconu:SWR201-NRTN-S03-SA-WH" H 6700 2250 50  0001 C CNN
F 3 "" H 6700 2250 50  0001 C CNN
	1    6700 2250
	-1   0    0    1   
$EndComp
Wire Wire Line
	6700 2800 5500 2800
Wire Wire Line
	5500 2800 5500 3100
Wire Wire Line
	6050 2250 5850 2250
Wire Wire Line
	5850 2250 5850 1450
Wire Wire Line
	5850 1450 3500 1450
Wire Wire Line
	3500 1450 3500 3100
Wire Wire Line
	6950 3100 6950 2800
Wire Wire Line
	6950 2800 7350 2800
Wire Wire Line
	7350 2800 7350 2250
Wire Wire Line
	4400 4850 3200 4850
Wire Wire Line
	3200 4850 3200 4100
Wire Wire Line
	4850 4550 3400 4550
Wire Wire Line
	3400 4550 3400 4100
Wire Wire Line
	5300 4850 5450 4850
Wire Wire Line
	5450 4850 5450 4100
$EndSCHEMATC
